gstore-eda
…
probs <- predict(m_xgb, dtest_xgb)
predictions <- (probs > 0.5) %>% as.numeric()

probs %>% 
    as_tibble() %>% 
    rename_(predict_label = names(.)[1]) %>% 
    tibble::rownames_to_column()

## # A tibble: 186 x 2
##    rowname predict_label
##    <chr>           <dbl>
##  1 1               0.565
##  2 2               0.465
##  3 3               0.496
##  4 4               0.485
##  5 5               0.493
##  6 6               0.492
##  7 7               0.523
##  8 8               0.501
##  9 9               0.499
## 10 10              0.540
## # ... with 176 more rows
…
